Introduction to R – Stat 302: Intermediate Statistics
…
Use filter() to remove rows.

Use == to select rows based on equality

Use < and > to select rows based on inequality

Use <= and >= to select rows based on inequality/equality.

filter(birds, Size == "L")

# A tibble: 28 × 6
   Species               Time Pairs Size  Status l_time
   <chr>                <dbl> <dbl> <chr> <chr>   <dbl>
 1 Sparrowhawk           3.03  1    L     R       1.11 
 2 Buzzard               5.46  2    L     R       1.70 
 3 Kestrel               4.1   1.21 L     R       1.41 
 4 Peregrine             1.68  1.13 L     R       0.519
 5 Grey_partridge        8.85  5.17 L     R       2.18 
 6 Quail                 1.49  1    L     M       0.399
 7 Red-legged_partridge  7.69  2.75 L     R       2.04 
 8 Pheasant              3.85  5.63 L     R       1.35 
 9 Water_rail           16.7   3    L     R       2.81 
10 Corncrake             4.22  4.67 L     M       1.44 
# ℹ 18 more rows

filter(birds, Pairs < 2)  

# A tibble: 21 × 6
   Species         Time Pairs Size  Status l_time
   <chr>          <dbl> <dbl> <chr> <chr>   <dbl>
 1 Sparrowhawk     3.03  1    L     R       1.11 
 2 Kestrel         4.1   1.21 L     R       1.41 
 3 Peregrine       1.68  1.13 L     R       0.519
 4 Quail           1.49  1    L     M       0.399
 5 Coot            5     1    L     R       1.61 
 6 Golden_plover   1     1.67 L     M       0    
 7 Cuckoo          2.53  1.43 L     M       0.928
 8 Yellow_wagtail  1     1.25 S     M       0    
 9 Song_thrush     1.7   1.7  S     R       0.531
10 Mistle_thrush   1.79  1.33 S     R       0.582
# ℹ 11 more rows
…
They are the same up to rounding.

Exercise
Solution

From the highway data, filter for just the states that increased the speed limit.

filter(highway, SpeedLimit == "Inc")

# A tibble: 32 × 7
   State    Fatalities1995 Fatalities1996 PctChange SpeedLimit ratio PctChange_2
   <chr>             <dbl>          <dbl>     <dbl> <chr>      <dbl>       <dbl>
 1 Alabama            1114           1146      2.87 Inc        1.03         2.87
 2 Arizona            1035            994     -3.96 Inc        0.960       -3.96
 3 Arkansas            631            615     -2.54 Inc        0.975       -2.54
 4 Califor…           4192           3989     -4.84 Inc        0.952       -4.84
 5 Colorado            645            617     -4.34 Inc        0.957       -4.34
 6 Delaware            121            116     -4.13 Inc        0.959       -4.13
 7 Florida            2805           2753     -1.85 Inc        0.981       -1.85
 8 Georgia            1488           1573      5.71 Inc        1.06         5.71
 9 Idaho               262            258     -1.53 Inc        0.985       -1.53
10 Illinois           1586           1477     -6.87 Inc        0.931       -6.87
# ℹ 22 more rows
…
